lab4/sim/transcript
# //  Questa Sim-64
# //  Version 10.7c linux_x86_64 Aug 17 2018
# //
# //  Copyright 1991-2018 Mentor Graphics Corporation
# //  All Rights Reserved.
# //
# //  QuestaSim and its associated documentation contain trade
# //  secrets and commercial or financial information that are the property of
# //  Mentor Graphics Corporation and are privileged, confidential,
# //  and exempt from disclosure under the Freedom of Information Act,
# //  5 U.S.C. Section 552. Furthermore, this information
# //  is prohibited from disclosure under the Trade Secrets Act,
# //  18 U.S.C. Section 1905.
# //
# vsim top 
# Start time: 18:51:08 on Mar 07,2022
# ** Note: (vsim-3813) Design is being optimized due to module recompilation...
# ** Warning: ../tb/monitor.sv(49): (vopt-2240) Treating stand-alone use of function 'begin_tr' as an implicit VOID cast.
# ** Warning: ../tb/monitor_out.sv(48): (vopt-2240) Treating stand-alone use of function 'begin_tr' as an implicit VOID cast.
# Loading sv_std.std
# Loading mtiUvm.uvm_pkg
# Loading work.top_sv_unit(fast)
# Loading work.top(fast)
# Loading work.DUT(fast)
# Loading mtiUvm.questa_uvm_pkg(fast)
# Loading work.dut_if(fast)
# Loading std.standard
# Loading std.textio(body)
# Loading ieee.std_logic_1164(body)
# Loading ieee.std_logic_arith(body)
# Loading ieee.std_logic_unsigned(body)
# Loading work.fpmul(single_cycle)#1
# Loading work.fpnormalize(fpnormalize)#1
# Loading work.fpround(fpround)#1
# Loading work.packfp(packfp)#1
# Loading work.unpackfp(unpackfp)#1
# ** Warning: (vsim-3839) Variable '/top/out/data', driven via a port connection, is multiply driven. See ../src/DUT.sv(3).
#    Time: 0 ns  Iteration: 0  Instance: /top/sum File: ../src/DUT.sv Line: 9
# ** Warning: (vsim-3764) Stand-alone call to function 'begin_tr' treated as implicit void cast.
#    Time: 0 ns  Iteration: 0  Region: /top_sv_unit::driver File: ../tb/driver.sv Line: 67
# Loading /software/mentor/questa10.7c/questasim/uvm-1.1d/linux_x86_64/uvm_dpi.so
run 4us
# ----------------------------------------------------------------
# UVM-1.1d
# (C) 2007-2013 Mentor Graphics Corporation
# (C) 2007-2013 Cadence Design Systems, Inc.
# (C) 2006-2013 Synopsys, Inc.
# (C) 2011-2013 Cypress Semiconductor Corp.
# ----------------------------------------------------------------
# 
#   ***********       IMPORTANT RELEASE NOTES         ************
# 
#   You are using a version of the UVM library that has been compiled
#   with `UVM_NO_DEPRECATED undefined.
#   See http://www.eda.org/svdb/view.php?id=3313 for more details.
# 
#   You are using a version of the UVM library that has been compiled
#   with `UVM_OBJECT_MUST_HAVE_CONSTRUCTOR undefined.
#   See http://www.eda.org/svdb/view.php?id=3770 for more details.
# 
#       (Specify +UVM_NO_RELNOTES to turn off this notice)
# 
# UVM_INFO verilog_src/questa_uvm_pkg-1.2/src/questa_uvm_pkg.sv(215) @ 0: reporter [Questa UVM] QUESTA_UVM-1.2.3
# UVM_INFO verilog_src/questa_uvm_pkg-1.2/src/questa_uvm_pkg.sv(216) @ 0: reporter [Questa UVM]  questa_uvm::init(+struct)
# ** Warning: There is an 'U'|'X'|'W'|'Z'|'-' in an arithmetic operand, the result will be 'X'(es).
#    Time: 0 ns  Iteration: 0  Instance: /top/sum/FPmul_under_test/I11
# ** Warning: There is an 'U'|'X'|'W'|'Z'|'-' in an arithmetic operand, the result will be 'X'(es).
#    Time: 0 ns  Iteration: 0  Instance: /top/sum/FPmul_under_test/I11
# ** Warning: There is an 'U'|'X'|'W'|'Z'|'-' in an arithmetic operand, the result will be 'X'(es).
#    Time: 0 ns  Iteration: 0  Instance: /top/sum/FPmul_under_test
# ** Warning: There is an 'U'|'X'|'W'|'Z'|'-' in an arithmetic operand, the result will be 'X'(es).
#    Time: 0 ns  Iteration: 0  Instance: /top/sum/FPmul_under_test
# ** Warning: There is an 'U'|'X'|'W'|'Z'|'-' in an arithmetic operand, the result will be 'X'(es).
#    Time: 0 ns  Iteration: 0  Instance: /top/sum/FPmul_under_test
# ** Warning: There is an 'U'|'X'|'W'|'Z'|'-' in an arithmetic operand, the result will be 'X'(es).
#    Time: 0 ns  Iteration: 0  Instance: /top/sum/FPmul_under_test
# ** Warning: There is an 'U'|'X'|'W'|'Z'|'-' in an arithmetic operand, the result will be 'X'(es).
#    Time: 0 ns  Iteration: 0  Instance: /top/sum/FPmul_under_test
# ** Warning: There is an 'U'|'X'|'W'|'Z'|'-' in an arithmetic operand, the result will be 'X'(es).
#    Time: 0 ns  Iteration: 0  Instance: /top/sum/FPmul_under_test
# ** Warning: There is an 'U'|'X'|'W'|'Z'|'-' in an arithmetic operand, the result will be 'X'(es).
#    Time: 0 ns  Iteration: 0  Instance: /top/sum/FPmul_under_test
# UVM_INFO @ 0: reporter [RNTST] Running test simple_test...
# ** Warning: There is an 'U'|'X'|'W'|'Z'|'-' in an arithmetic operand, the result will be 'X'(es).
#    Time: 0 ns  Iteration: 1  Instance: /top/sum/FPmul_under_test
# ** Warning: There is an 'U'|'X'|'W'|'Z'|'-' in an arithmetic operand, the result will be 'X'(es).
#    Time: 0 ns  Iteration: 1  Instance: /top/sum/FPmul_under_test
# ** Warning: There is an 'U'|'X'|'W'|'Z'|'-' in an arithmetic operand, the result will be 'X'(es).
#    Time: 0 ns  Iteration: 1  Instance: /top/sum/FPmul_under_test
# ** Warning: There is an 'U'|'X'|'W'|'Z'|'-' in an arithmetic operand, the result will be 'X'(es).
#    Time: 0 ns  Iteration: 1  Instance: /top/sum/FPmul_under_test
# ** Warning: There is an 'U'|'X'|'W'|'Z'|'-' in an arithmetic operand, the result will be 'X'(es).
#    Time: 0 ns  Iteration: 1  Instance: /top/sum/FPmul_under_test
# ** Warning: There is an 'U'|'X'|'W'|'Z'|'-' in an arithmetic operand, the result will be 'X'(es).
#    Time: 0 ns  Iteration: 1  Instance: /top/sum/FPmul_under_test
# ** Warning: There is an 'U'|'X'|'W'|'Z'|'-' in an arithmetic operand, the result will be 'X'(es).
#    Time: 0 ns  Iteration: 2  Instance: /top/sum/FPmul_under_test
# ** Warning: There is an 'U'|'X'|'W'|'Z'|'-' in an arithmetic operand, the result will be 'X'(es).
#    Time: 0 ns  Iteration: 2  Instance: /top/sum/FPmul_under_test
# ** Warning: There is an 'U'|'X'|'W'|'Z'|'-' in an arithmetic operand, the result will be 'X'(es).
#    Time: 0 ns  Iteration: 2  Instance: /top/sum/FPmul_under_test
# ** Warning: There is an 'U'|'X'|'W'|'Z'|'-' in an arithmetic operand, the result will be 'X'(es).
#    Time: 0 ns  Iteration: 2  Instance: /top/sum/FPmul_under_test
# ** Warning: There is an 'U'|'X'|'W'|'Z'|'-' in an arithmetic operand, the result will be 'X'(es).
#    Time: 0 ns  Iteration: 2  Instance: /top/sum/FPmul_under_test
# ** Warning: There is an 'U'|'X'|'W'|'Z'|'-' in an arithmetic operand, the result will be 'X'(es).
#    Time: 0 ns  Iteration: 2  Instance: /top/sum/FPmul_under_test
# ** Warning: There is an 'U'|'X'|'W'|'Z'|'-' in an arithmetic operand, the result will be 'X'(es).
#    Time: 0 ns  Iteration: 3  Instance: /top/sum/FPmul_under_test/I11
# ** Warning: There is an 'U'|'X'|'W'|'Z'|'-' in an arithmetic operand, the result will be 'X'(es).
#    Time: 0 ns  Iteration: 3  Instance: /top/sum/FPmul_under_test/I11
# fpmul: input A = 0.000000, input B = 0.000000, output OUT = 0.000000
# fpmul: input A = 00101011100100100110001111011001, input B = 00001010011100000010010111111101, output OUT = 00000000000000000000000000000000
# refmod: input A = 0.000000, input B = 0.000000, output OUT = 0.000000
# refmod: input A = 00101011100100100110001111011001, input B = 00001010011100000010010111111101, output OUT = 00000000000000000000000000001001
# UVM_INFO @ 45: reporter [MISCMP] Miscompare for exp.data: lhs = 'h9 : rhs = 'h0
# UVM_INFO @ 45: reporter [MISCMP] 1 Miscompare(s) for object tr@825 vs. exp@617
# UVM_WARNING @ 45: uvm_test_top.env_h.comp [Comparator Mismatch] 
# fpmul: input A = 0.000000, input B = -0.000000, output OUT = -0.000000
# fpmul: input A = 00000100110010100111111010001011, input B = 10100001000100100111100111110100, output OUT = 10000000000000000000000000000000
# refmod: input A = 0.000000, input B = -0.000000, output OUT = -0.000000
# refmod: input A = 00000100110010100111111010001011, input B = 10100001000100100111100111110100, output OUT = 10000000000000000000000000000000
# UVM_INFO @ 75: uvm_test_top.env_h.comp [Comparator Match] 
# fpmul: input A = 0.000000, input B = -3634664419216517496832.000000, output OUT = -0.000000
# fpmul: input A = 00001111100011001011000101110100, input B = 11100011010001010000100100011010, output OUT = 10110011010110001001001100011110
# refmod: input A = 0.000000, input B = -3634664419216517496832.000000, output OUT = -0.000000
# refmod: input A = 00001111100011001011000101110100, input B = 11100011010001010000100100011010, output OUT = 10110011010110001001001100011110
# UVM_INFO @ 105: uvm_test_top.env_h.comp [Comparator Match] 
# fpmul: input A = -58806067955672318115386974330377207808.000000, input B = -70372476236280636002269185179648.000000, output OUT = inf
# fpmul: input A = 11111110001100001111011010001100, input B = 11110100010111100000111001101111, output OUT = 01111111100000000000000000000000
# refmod: input A = -58806067955672318115386974330377207808.000000, input B = -70372476236280636002269185179648.000000, output OUT = inf
# refmod: input A = 11111110001100001111011010001100, input B = 11110100010111100000111001101111, output OUT = 01111111100000000000000000000000
# UVM_INFO @ 135: uvm_test_top.env_h.comp [Comparator Match] 
# fpmul: input A = -0.000000, input B = -1123752354475147264.000000, output OUT = 0.105673
# fpmul: input A = 10011111110111100000100101001111, input B = 11011101011110011000010111101101, output OUT = 00111101110110000110101100110110
# refmod: input A = -0.000000, input B = -1123752354475147264.000000, output OUT = 0.105673
# refmod: input A = 10011111110111100000100101001111, input B = 11011101011110011000010111101101, output OUT = 00111101110110000110101100110110
# UVM_INFO @ 165: uvm_test_top.env_h.comp [Comparator Match] 
# fpmul: input A = 0.000000, input B = 48.449173, output OUT = 0.000000
# fpmul: input A = 00001000010111101000011100010110, input B = 01000010010000011100101111110100, output OUT = 00001011001010000111010100100001
# refmod: input A = 0.000000, input B = 48.449173, output OUT = 0.000000
# refmod: input A = 00001000010111101000011100010110, input B = 01000010010000011100101111110100, output OUT = 00001011001010000111010100100001
# UVM_INFO @ 195: uvm_test_top.env_h.comp [Comparator Match] 
# fpmul: input A = -50696295327635341312.000000, input B = -240329734262254225028284416.000000, output OUT = inf
# fpmul: input A = 11100000001011111110001101011011, input B = 11101011010001101100101111001101, output OUT = 01111111100000000000000000000000
# refmod: input A = -50696295327635341312.000000, input B = -240329734262254225028284416.000000, output OUT = inf
# refmod: input A = 11100000001011111110001101011011, input B = 11101011010001101100101111001101, output OUT = 01111111100000000000000000000000
# UVM_INFO @ 225: uvm_test_top.env_h.comp [Comparator Match] 
# fpmul: input A = -0.000000, input B = -493793.500000, output OUT = 0.000000
# fpmul: input A = 10010110111000011011110110000001, input B = 11001000111100010001110000110000, output OUT = 00100000010101001001110001000001
# refmod: input A = -0.000000, input B = -493793.500000, output OUT = 0.000000
# refmod: input A = 10010110111000011011110110000001, input B = 11001000111100010001110000110000, output OUT = 00100000010101001001110001000001
# UVM_INFO @ 255: uvm_test_top.env_h.comp [Comparator Match] 
# fpmul: input A = -501561062641451598348288.000000, input B = -961810240.000000, output OUT = 482406548152044729419664451436544.000000
# fpmul: input A = 11100110110101000110101101011100, input B = 11001110011001010101000000111101, output OUT = 01110101101111100100011010011101
# refmod: input A = -501561062641451598348288.000000, input B = -961810240.000000, output OUT = 482406548152044729419664451436544.000000
# refmod: input A = 11100110110101000110101101011100, input B = 11001110011001010101000000111101, output OUT = 01110101101111100100011010011101
# UVM_INFO @ 285: uvm_test_top.env_h.comp [Comparator Match] 
# fpmul: input A = -0.000000, input B = -0.000000, output OUT = 0.000000
# fpmul: input A = 10001101011101001001111010100100, input B = 10101111001000100101100101001001, output OUT = 00000000000000000000000000000000
# refmod: input A = -0.000000, input B = -0.000000, output OUT = 0.000000
# refmod: input A = 10001101011101001001111010100100, input B = 10101111001000100101100101001001, output OUT = 00000000000000010011011001000011
# UVM_INFO @ 315: reporter [MISCMP] Miscompare for exp.data: lhs = 'h13643 : rhs = 'h0
# UVM_INFO @ 315: reporter [MISCMP] 1 Miscompare(s) for object tr@825 vs. exp@617
# UVM_WARNING @ 315: uvm_test_top.env_h.comp [Comparator Mismatch] 
# fpmul: input A = 129273919994593280.000000, input B = 11548883943424.000000, output OUT = 1492969438909366727935206096896.000000
# fpmul: input A = 01011011111001011010001011111001, input B = 01010101001010000000111011110010, output OUT = 01110001100101101100000001011011
# refmod: input A = 129273919994593280.000000, input B = 11548883943424.000000, output OUT = 1492969438909366727935206096896.000000
# refmod: input A = 01011011111001011010001011111001, input B = 01010101001010000000111011110010, output OUT = 01110001100101101100000001011011
# UVM_INFO @ 345: uvm_test_top.env_h.comp [Comparator Match] 
# fpmul: input A = -3333851.250000, input B = -1249732403920896000.000000, output OUT = 4166421968740700567633920.000000
# fpmul: input A = 11001010010010110111101101101101, input B = 11011101100010101011111110001000, output OUT = 01101000010111001001000110001100
# refmod: input A = -3333851.250000, input B = -1249732403920896000.000000, output OUT = 4166421968740700567633920.000000
# refmod: input A = 11001010010010110111101101101101, input B = 11011101100010101011111110001000, output OUT = 01101000010111001001000110001100
# UVM_INFO @ 375: uvm_test_top.env_h.comp [Comparator Match] 
# fpmul: input A = 182071147432965713166336.000000, input B = 0.000000, output OUT = 4263796.000000
# fpmul: input A = 01100110000110100011100001100011, input B = 00100011110101111111111011100011, output OUT = 01001010100000100001111011101000
# refmod: input A = 182071147432965713166336.000000, input B = 0.000000, output OUT = 4263796.000000
# refmod: input A = 01100110000110100011100001100011, input B = 00100011110101111111111011100011, output OUT = 01001010100000100001111011101000
# UVM_INFO @ 405: uvm_test_top.env_h.comp [Comparator Match] 
# fpmul: input A = -1030253379584.000000, input B = 0.000000, output OUT = -0.000000
# fpmul: input A = 11010011011011111101111111100011, input B = 00010100111010010111000001010011, output OUT = 10101000110110101011110000000101
# refmod: input A = -1030253379584.000000, input B = 0.000000, output OUT = -0.000000
# refmod: input A = 11010011011011111101111111100011, input B = 00010100111010010111000001010011, output OUT = 10101000110110101011110000000101
# UVM_INFO @ 435: uvm_test_top.env_h.comp [Comparator Match] 
# fpmul: input A = 0.000000, input B = 205617991305492010681452269142016.000000, output OUT = 0.002428
# fpmul: input A = 00000101011110110001011100100001, input B = 01110101001000100011010000111001, output OUT = 00111011000111110001011111011011
# refmod: input A = 0.000000, input B = 205617991305492010681452269142016.000000, output OUT = 0.002428
# refmod: input A = 00000101011110110001011100100001, input B = 01110101001000100011010000111001, output OUT = 00111011000111110001011111011011
# UVM_INFO @ 465: uvm_test_top.env_h.comp [Comparator Match] 
# fpmul: input A = -0.000010, input B = -0.000000, output OUT = 0.000000
# fpmul: input A = 10110111001010010010010100011110, input B = 10011011011101101100011111000110, output OUT = 00010011001000110000110110101010
# refmod: input A = -0.000010, input B = -0.000000, output OUT = 0.000000
# refmod: input A = 10110111001010010010010100011110, input B = 10011011011101101100011111000110, output OUT = 00010011001000110000110110101010
# UVM_INFO @ 495: uvm_test_top.env_h.comp [Comparator Match] 
# fpmul: input A = 0.000000, input B = 0.000000, output OUT = 0.000000
# fpmul: input A = 00110100001110011000001000100001, input B = 00100100100111011001010001011011, output OUT = 00011001011001000110000010011111
# refmod: input A = 0.000000, input B = 0.000000, output OUT = 0.000000
# refmod: input A = 00110100001110011000001000100001, input B = 00100100100111011001010001011011, output OUT = 00011001011001000110000010011111
# UVM_INFO @ 525: uvm_test_top.env_h.comp [Comparator Match] 
# fpmul: input A = 1166356712064548864.000000, input B = 2.320973, output OUT = 2707082289979850752.000000
# fpmul: input A = 01011101100000010111110111011010, input B = 01000000000101001000101011010010, output OUT = 01011110000101100100010111110100
# refmod: input A = 1166356712064548864.000000, input B = 2.320973, output OUT = 2707082289979850752.000000
# refmod: input A = 01011101100000010111110111011010, input B = 01000000000101001000101011010010, output OUT = 01011110000101100100010111110100
# UVM_INFO @ 555: uvm_test_top.env_h.comp [Comparator Match] 
# fpmul: input A = 10831624352287382568960.000000, input B = 0.000000, output OUT = 0.572143
# fpmul: input A = 01100100000100101100101110111111, input B = 00011010011111110110110111101110, output OUT = 00111111000100100111011111111100
# refmod: input A = 10831624352287382568960.000000, input B = 0.000000, output OUT = 0.572143
# refmod: input A = 01100100000100101100101110111111, input B = 00011010011111110110110111101110, output OUT = 00111111000100100111011111111100
# UVM_INFO @ 585: uvm_test_top.env_h.comp [Comparator Match] 
# fpmul: input A = 433071.968750, input B = -9332405961709026649720344574689280.000000, output OUT = -inf
# fpmul: input A = 01001000110100110111010111111111, input B = 11110111111001100000111111000011, output OUT = 11111111100000000000000000000000
# refmod: input A = 433071.968750, input B = -9332405961709026649720344574689280.000000, output OUT = -inf
# refmod: input A = 01001000110100110111010111111111, input B = 11110111111001100000111111000011, output OUT = 11111111100000000000000000000000
# UVM_INFO @ 615: uvm_test_top.env_h.comp [Comparator Match] 
# fpmul: input A = -0.000000, input B = 0.000000, output OUT = -0.000000
# fpmul: input A = 10011100110011011100011010010001, input B = 00000010100011001111000011011011, output OUT = 10000000000000000000000000000000
# refmod: input A = -0.000000, input B = 0.000000, output OUT = -0.000000
# refmod: input A = 10011100110011011100011010010001, input B = 00000010100011001111000011011011, output OUT = 10000000000000000000000000000000
# UVM_INFO @ 645: uvm_test_top.env_h.comp [Comparator Match] 
# fpmul: input A = -0.000000, input B = -3172271616.000000, output OUT = 0.000000
# fpmul: input A = 10011011011000010011000001101011, input B = 11001111001111010001010100000110, output OUT = 00101011001001100101001100111101
# refmod: input A = -0.000000, input B = -3172271616.000000, output OUT = 0.000000
# refmod: input A = 10011011011000010011000001101011, input B = 11001111001111010001010100000110, output OUT = 00101011001001100101001100111101
# UVM_INFO @ 675: uvm_test_top.env_h.comp [Comparator Match] 
# fpmul: input A = -16187205.000000, input B = 1550565970381440839023463736367120384.000000, output OUT = -inf
# fpmul: input A = 11001011011101101111111101000101, input B = 01111011100101010101000001100111, output OUT = 11111111100000000000000000000000
# refmod: input A = -16187205.000000, input B = 1550565970381440839023463736367120384.000000, output OUT = -inf
# refmod: input A = 11001011011101101111111101000101, input B = 01111011100101010101000001100111, output OUT = 11111111100000000000000000000000
# UVM_INFO @ 705: uvm_test_top.env_h.comp [Comparator Match] 
# fpmul: input A = -0.000000, input B = -4625793262785149272064.000000, output OUT = 7285383.500000
# fpmul: input A = 10100110111000101111100101010011, input B = 11100011011110101100001111000111, output OUT = 01001010110111100101010100001111
# refmod: input A = -0.000000, input B = -4625793262785149272064.000000, output OUT = 7285383.500000
# refmod: input A = 10100110111000101111100101010011, input B = 11100011011110101100001111000111, output OUT = 01001010110111100101010100001111
# UVM_INFO @ 735: uvm_test_top.env_h.comp [Comparator Match] 
# fpmul: input A = -0.000001, input B = -2848148461943139598336000.000000, output OUT = 1620971647362138112.000000
# fpmul: input A = 10110101000110001100011001101111, input B = 11101000000101101100011110011100, output OUT = 01011101101100111111011011001001
# refmod: input A = -0.000001, input B = -2848148461943139598336000.000000, output OUT = 1620971647362138112.000000
# refmod: input A = 10110101000110001100011001101111, input B = 11101000000101101100011110011100, output OUT = 01011101101100111111011011001001
# UVM_INFO @ 765: uvm_test_top.env_h.comp [Comparator Match] 
# fpmul: input A = 38924423941388322163654656.000000, input B = -0.000000, output OUT = -0.000006
# fpmul: input A = 01101010000000001100101001000101, input B = 10001100010010000110111000100110, output OUT = 10110110110010011010101011100000
# refmod: input A = 38924423941388322163654656.000000, input B = -0.000000, output OUT = -0.000006
# refmod: input A = 01101010000000001100101001000101, input B = 10001100010010000110111000100110, output OUT = 10110110110010011010101011100000
# UVM_INFO @ 795: uvm_test_top.env_h.comp [Comparator Match] 
# fpmul: input A = -0.000033, input B = 0.000000, output OUT = -0.000000
# fpmul: input A = 10111000000010001000110011000110, input B = 00010101010010110000100001100010, output OUT = 10001101110110001001100000110011
# refmod: input A = -0.000033, input B = 0.000000, output OUT = -0.000000
# refmod: input A = 10111000000010001000110011000110, input B = 00010101010010110000100001100010, output OUT = 10001101110110001001100000110011
# UVM_INFO @ 825: uvm_test_top.env_h.comp [Comparator Match] 
# fpmul: input A = -14876033187634695060324352.000000, input B = 306214699008.000000, output OUT = -4555259965625034708593452828961275904.000000
# fpmul: input A = 11101001010001001110000111110110, input B = 01010010100011101001011110100011, output OUT = 11111100010110110101001111101010
# refmod: input A = -14876033187634695060324352.000000, input B = 306214699008.000000, output OUT = -4555259965625034708593452828961275904.000000
# refmod: input A = 11101001010001001110000111110110, input B = 01010010100011101001011110100011, output OUT = 11111100010110110101001111101010
# UVM_INFO @ 855: uvm_test_top.env_h.comp [Comparator Match] 
# fpmul: input A = 961411726681418771211804832109166592.000000, input B = 0.000727, output OUT = 698650494498808370861047329849344.000000
# fpmul: input A = 01111011001110010010100101000010, input B = 00111010001111100111111101111110, output OUT = 01110110000010011100100011010110
# refmod: input A = 961411726681418771211804832109166592.000000, input B = 0.000727, output OUT = 698650494498808370861047329849344.000000
# refmod: input A = 01111011001110010010100101000010, input B = 00111010001111100111111101111110, output OUT = 01110110000010011100100011010110
# UVM_INFO @ 885: uvm_test_top.env_h.comp [Comparator Match] 
# fpmul: input A = 0.000000, input B = 0.067238, output OUT = 0.000000
# fpmul: input A = 00010110100101000010101000100010, input B = 00111101100010011011001111010101, output OUT = 00010100100111110110010101000010
# refmod: input A = 0.000000, input B = 0.067238, output OUT = 0.000000
# refmod: input A = 00010110100101000010101000100010, input B = 00111101100010011011001111010101, output OUT = 00010100100111110110010101000010
# UVM_INFO @ 915: uvm_test_top.env_h.comp [Comparator Match] 
# fpmul: input A = -575227292297662542431600785752064.000000, input B = -0.000000, output OUT = 0.026596
# fpmul: input A = 11110101111000101110001100011101, input B = 10000110011101011101010110110100, output OUT = 00111100110110011110000011000001
# refmod: input A = -575227292297662542431600785752064.000000, input B = -0.000000, output OUT = 0.026596
# refmod: input A = 11110101111000101110001100011101, input B = 10000110011101011101010110110100, output OUT = 00111100110110011110000011000001
# UVM_INFO @ 945: uvm_test_top.env_h.comp [Comparator Match] 
# fpmul: input A = 0.000000, input B = -862.034119, output OUT = -0.000000
# fpmul: input A = 00101110110100011000100100100100, input B = 11000100010101111000001000101111, output OUT = 10110011101100000110010010111011
# refmod: input A = 0.000000, input B = -862.034119, output OUT = -0.000000
# refmod: input A = 00101110110100011000100100100100, input B = 11000100010101111000001000101111, output OUT = 10110011101100000110010010111011
# UVM_INFO @ 975: uvm_test_top.env_h.comp [Comparator Match] 
# fpmul: input A = -0.000004, input B = -0.000000, output OUT = 0.000000
# fpmul: input A = 10110110011110100010010100100011, input B = 10101001001001001101111100101010, output OUT = 00100000001000010001100111011010
# refmod: input A = -0.000004, input B = -0.000000, output OUT = 0.000000
# refmod: input A = 10110110011110100010010100100011, input B = 10101001001001001101111100101010, output OUT = 00100000001000010001100111011010
# UVM_INFO @ 1005: uvm_test_top.env_h.comp [Comparator Match] 
# fpmul: input A = 167703474883002368.000000, input B = 1442051880108092439920640.000000, output OUT = inf
# fpmul: input A = 01011100000101001111001101011011, input B = 01100111100110001010111011100101, output OUT = 01111111100000000000000000000000
# refmod: input A = 167703474883002368.000000, input B = 1442051880108092439920640.000000, output OUT = inf
# refmod: input A = 01011100000101001111001101011011, input B = 01100111100110001010111011100101, output OUT = 01111111100000000000000000000000
# UVM_INFO @ 1035: uvm_test_top.env_h.comp [Comparator Match] 
# fpmul: input A = 146814533799551263824235185831936.000000, input B = -0.000000, output OUT = -82555026014208.000000
# fpmul: input A = 01110100111001111010000111101011, input B = 10100001001001011111011011010000, output OUT = 11010110100101100010101010101110
# refmod: input A = 146814533799551263824235185831936.000000, input B = -0.000000, output OUT = -82555026014208.000000
# refmod: input A = 01110100111001111010000111101011, input B = 10100001001001011111011011010000, output OUT = 11010110100101100010101010101110
# UVM_INFO @ 1065: uvm_test_top.env_h.comp [Comparator Match] 
# fpmul: input A = 571672381064415100796928.000000, input B = 0.000000, output OUT = 341901475840.000000
# fpmul: input A = 01100110111100100001110011011000, input B = 00101011001010000101011110101001, output OUT = 01010010100111110011010111010101
# refmod: input A = 571672381064415100796928.000000, input B = 0.000000, output OUT = 341901475840.000000
# refmod: input A = 01100110111100100001110011011000, input B = 00101011001010000101011110101001, output OUT = 01010010100111110011010111010101
# UVM_INFO @ 1095: uvm_test_top.env_h.comp [Comparator Match] 
# fpmul: input A = 0.000000, input B = 10665866421310849024.000000, output OUT = 0.000000
# fpmul: input A = 00001110101100111010011010101101, input B = 01011111000101000000010011000101, output OUT = 00101110010011111011111101101010
# refmod: input A = 0.000000, input B = 10665866421310849024.000000, output OUT = 0.000000
# refmod: input A = 00001110101100111010011010101101, input B = 01011111000101000000010011000101, output OUT = 00101110010011111011111101101010
# UVM_INFO @ 1125: uvm_test_top.env_h.comp [Comparator Match] 
# fpmul: input A = 739899830849163493376.000000, input B = -0.414403, output OUT = -306616567921056415744.000000
# fpmul: input A = 01100010001000000111000010110001, input B = 10111110110101000010110010011011, output OUT = 11100001100001001111100101000111
# refmod: input A = 739899830849163493376.000000, input B = -0.414403, output OUT = -306616567921056415744.000000
# refmod: input A = 01100010001000000111000010110001, input B = 10111110110101000010110010011011, output OUT = 11100001100001001111100101000111
# UVM_INFO @ 1155: uvm_test_top.env_h.comp [Comparator Match] 
# fpmul: input A = -269824288701940648235761664.000000, input B = 3489856.750000, output OUT = -941648143318961780445279040831488.000000
# fpmul: input A = 11101011010111110011000110000100, input B = 01001010010101010000000100000011, output OUT = 11110110001110011011010100010101
# refmod: input A = -269824288701940648235761664.000000, input B = 3489856.750000, output OUT = -941648143318961780445279040831488.000000
# refmod: input A = 11101011010111110011000110000100, input B = 01001010010101010000000100000011, output OUT = 11110110001110011011010100010101
# UVM_INFO @ 1185: uvm_test_top.env_h.comp [Comparator Match] 
# fpmul: input A = 356668131620396466176.000000, input B = 0.000000, output OUT = 525901103104.000000
# fpmul: input A = 01100001100110101010111000011110, input B = 00110000110010101010011011000010, output OUT = 01010010111101001110010001001100
# refmod: input A = 356668131620396466176.000000, input B = 0.000000, output OUT = 525901103104.000000
# refmod: input A = 01100001100110101010111000011110, input B = 00110000110010101010011011000010, output OUT = 01010010111101001110010001001100
# UVM_INFO @ 1215: uvm_test_top.env_h.comp [Comparator Match] 
# fpmul: input A = 0.000000, input B = -0.000000, output OUT = -0.000000
# fpmul: input A = 00010000000001010000011010111100, input B = 10000011010010001000110001000100, output OUT = 10000000000000000000000000000000
# refmod: input A = 0.000000, input B = -0.000000, output OUT = -0.000000
# refmod: input A = 00010000000001010000011010111100, input B = 10000011010010001000110001000100, output OUT = 10000000000000000000000000000000
# UVM_INFO @ 1245: uvm_test_top.env_h.comp [Comparator Match] 
# fpmul: input A = 29.936541, input B = -72949731727581617302464659588120576.000000, output OUT = -2183862660195260368111391213818478592.000000
# fpmul: input A = 01000001111011110111111000001001, input B = 11111001011000001100101100110001, output OUT = 11111011110100100100110001011111
# refmod: input A = 29.936541, input B = -72949731727581617302464659588120576.000000, output OUT = -2183862660195260368111391213818478592.000000
# refmod: input A = 01000001111011110111111000001001, input B = 11111001011000001100101100110001, output OUT = 11111011110100100100110001011111
# UVM_INFO @ 1275: uvm_test_top.env_h.comp [Comparator Match] 
# fpmul: input A = -123214867610618959062003441566998331392.000000, input B = -7690758201362192799923179702190080.000000, output OUT = inf
# fpmul: input A = 11111110101110010110010010100100, input B = 11110111101111011001011110000010, output OUT = 01111111100000000000000000000000
# refmod: input A = -123214867610618959062003441566998331392.000000, input B = -7690758201362192799923179702190080.000000, output OUT = inf
# refmod: input A = 11111110101110010110010010100100, input B = 11110111101111011001011110000010, output OUT = 01111111100000000000000000000000
# UVM_INFO @ 1305: uvm_test_top.env_h.comp [Comparator Match] 
# fpmul: input A = 19908418729947327971718498091008.000000, input B = 0.004429, output OUT = 88181797699984082136582848512.000000
# fpmul: input A = 01110011011110110100011110010010, input B = 00111011100100010010010001000100, output OUT = 01101111100011100111011100100011
# refmod: input A = 19908418729947327971718498091008.000000, input B = 0.004429, output OUT = 88181797699984082136582848512.000000
# refmod: input A = 01110011011110110100011110010010, input B = 00111011100100010010010001000100, output OUT = 01101111100011100111011100100011
# UVM_INFO @ 1335: uvm_test_top.env_h.comp [Comparator Match] 
# fpmul: input A = -381968386293320075366830702592.000000, input B = 55862.914062, output OUT = -21337867377626071363284045406404608.000000
# fpmul: input A = 11110000100110100100011010011011, input B = 01000111010110100011011011101010, output OUT = 11111000100000111000000100111000
# refmod: input A = -381968386293320075366830702592.000000, input B = 55862.914062, output OUT = -21337867377626071363284045406404608.000000
# refmod: input A = 11110000100110100100011010011011, input B = 01000111010110100011011011101010, output OUT = 11111000100000111000000100111000
# UVM_INFO @ 1365: uvm_test_top.env_h.comp [Comparator Match] 
# fpmul: input A = -19252427526637403812921344.000000, input B = 0.000000, output OUT = -0.000002
# fpmul: input A = 11101001011111101100110111000011, input B = 00001100001001111100100001100010, output OUT = 10110110001001101111111110101101
# refmod: input A = -19252427526637403812921344.000000, input B = 0.000000, output OUT = -0.000002
# refmod: input A = 11101001011111101100110111000011, input B = 00001100001001111100100001100010, output OUT = 10110110001001101111111110101101
# UVM_INFO @ 1395: uvm_test_top.env_h.comp [Comparator Match] 
# fpmul: input A = 208856102437875798866132992000.000000, input B = -13.770127, output OUT = -2875974985266586786139138424832.000000
# fpmul: input A = 01110000001010001011011001101110, input B = 11000001010111000101001001110001, output OUT = 11110010000100010011001100011011
# refmod: input A = 208856102437875798866132992000.000000, input B = -13.770127, output OUT = -2875974985266586786139138424832.000000
# refmod: input A = 01110000001010001011011001101110, input B = 11000001010111000101001001110001, output OUT = 11110010000100010011001100011011
# UVM_INFO @ 1425: uvm_test_top.env_h.comp [Comparator Match] 
