lab4/log_reports/floating_point_multiplier.log
# //  Questa Sim-64
# //  Version 10.7c linux_x86_64 Aug 17 2018
# //
# //  Copyright 1991-2018 Mentor Graphics Corporation
# //  All Rights Reserved.
# //
# //  QuestaSim and its associated documentation contain trade
# //  secrets and commercial or financial information that are the property of
# //  Mentor Graphics Corporation and are privileged, confidential,
# //  and exempt from disclosure under the Freedom of Information Act,
# //  5 U.S.C. Section 552. Furthermore, this information
# //  is prohibited from disclosure under the Trade Secrets Act,
# //  18 U.S.C. Section 1905.
# //
# vsim top 
# Start time: 16:59:55 on Apr 07,2022
# ** Note: (vsim-3813) Design is being optimized due to module recompilation...
# ** Warning: ../tb/monitor.sv(49): (vopt-2240) Treating stand-alone use of function 'begin_tr' as an implicit VOID cast.
# ** Warning: ../tb/monitor_out.sv(48): (vopt-2240) Treating stand-alone use of function 'begin_tr' as an implicit VOID cast.
# Loading sv_std.std
# Loading mtiUvm.uvm_pkg
# Loading work.top_sv_unit(fast)
# Loading work.top(fast)
# Loading work.DUT(fast)
# Loading mtiUvm.questa_uvm_pkg(fast)
# Loading work.dut_if(fast)
# Loading std.standard
# Loading std.textio(body)
# Loading ieee.std_logic_1164(body)
# Loading ieee.std_logic_arith(body)
# Loading ieee.std_logic_unsigned(body)
# Loading work.fpmul(single_cycle)#1
# Loading work.fpnormalize(fpnormalize)#1
# Loading work.fpround(fpround)#1
# Loading work.packfp(packfp)#1
# Loading work.unpackfp(unpackfp)#1
# ** Warning: (vsim-3839) Variable '/top/out/data', driven via a port connection, is multiply driven. See ../src/DUT.sv(3).
#    Time: 0 ns  Iteration: 0  Instance: /top/sum File: ../src/DUT.sv Line: 9
# ** Warning: (vsim-3764) Stand-alone call to function 'begin_tr' treated as implicit void cast.
#    Time: 0 ns  Iteration: 0  Region: /top_sv_unit::driver File: ../tb/driver.sv Line: 67
# Loading /software/mentor/questa10.7c/questasim/uvm-1.1d/linux_x86_64/uvm_dpi.so
run 4us
# ----------------------------------------------------------------
# UVM-1.1d
# (C) 2007-2013 Mentor Graphics Corporation
# (C) 2007-2013 Cadence Design Systems, Inc.
# (C) 2006-2013 Synopsys, Inc.
# (C) 2011-2013 Cypress Semiconductor Corp.
# ----------------------------------------------------------------
# 
#   ***********       IMPORTANT RELEASE NOTES         ************
# 
#   You are using a version of the UVM library that has been compiled
#   with `UVM_NO_DEPRECATED undefined.
#   See http://www.eda.org/svdb/view.php?id=3313 for more details.
# 
#   You are using a version of the UVM library that has been compiled
#   with `UVM_OBJECT_MUST_HAVE_CONSTRUCTOR undefined.
#   See http://www.eda.org/svdb/view.php?id=3770 for more details.
# 
#       (Specify +UVM_NO_RELNOTES to turn off this notice)
# 
# UVM_INFO verilog_src/questa_uvm_pkg-1.2/src/questa_uvm_pkg.sv(215) @ 0: reporter [Questa UVM] QUESTA_UVM-1.2.3
# UVM_INFO verilog_src/questa_uvm_pkg-1.2/src/questa_uvm_pkg.sv(216) @ 0: reporter [Questa UVM]  questa_uvm::init(+struct)
# ** Warning: There is an 'U'|'X'|'W'|'Z'|'-' in an arithmetic operand, the result will be 'X'(es).
#    Time: 0 ns  Iteration: 0  Instance: /top/sum/FPmul_under_test/I11
# ** Warning: There is an 'U'|'X'|'W'|'Z'|'-' in an arithmetic operand, the result will be 'X'(es).
#    Time: 0 ns  Iteration: 0  Instance: /top/sum/FPmul_under_test/I11
# ** Warning: There is an 'U'|'X'|'W'|'Z'|'-' in an arithmetic operand, the result will be 'X'(es).
#    Time: 0 ns  Iteration: 0  Instance: /top/sum/FPmul_under_test
# ** Warning: There is an 'U'|'X'|'W'|'Z'|'-' in an arithmetic operand, the result will be 'X'(es).
#    Time: 0 ns  Iteration: 0  Instance: /top/sum/FPmul_under_test
# ** Warning: There is an 'U'|'X'|'W'|'Z'|'-' in an arithmetic operand, the result will be 'X'(es).
#    Time: 0 ns  Iteration: 0  Instance: /top/sum/FPmul_under_test
# ** Warning: There is an 'U'|'X'|'W'|'Z'|'-' in an arithmetic operand, the result will be 'X'(es).
#    Time: 0 ns  Iteration: 0  Instance: /top/sum/FPmul_under_test
# ** Warning: There is an 'U'|'X'|'W'|'Z'|'-' in an arithmetic operand, the result will be 'X'(es).
#    Time: 0 ns  Iteration: 0  Instance: /top/sum/FPmul_under_test
# ** Warning: There is an 'U'|'X'|'W'|'Z'|'-' in an arithmetic operand, the result will be 'X'(es).
#    Time: 0 ns  Iteration: 0  Instance: /top/sum/FPmul_under_test
# ** Warning: There is an 'U'|'X'|'W'|'Z'|'-' in an arithmetic operand, the result will be 'X'(es).
#    Time: 0 ns  Iteration: 0  Instance: /top/sum/FPmul_under_test
# UVM_INFO @ 0: reporter [RNTST] Running test simple_test...
# ** Warning: There is an 'U'|'X'|'W'|'Z'|'-' in an arithmetic operand, the result will be 'X'(es).
#    Time: 0 ns  Iteration: 1  Instance: /top/sum/FPmul_under_test
# ** Warning: There is an 'U'|'X'|'W'|'Z'|'-' in an arithmetic operand, the result will be 'X'(es).
#    Time: 0 ns  Iteration: 1  Instance: /top/sum/FPmul_under_test
# ** Warning: There is an 'U'|'X'|'W'|'Z'|'-' in an arithmetic operand, the result will be 'X'(es).
#    Time: 0 ns  Iteration: 1  Instance: /top/sum/FPmul_under_test
# ** Warning: There is an 'U'|'X'|'W'|'Z'|'-' in an arithmetic operand, the result will be 'X'(es).
#    Time: 0 ns  Iteration: 1  Instance: /top/sum/FPmul_under_test
# ** Warning: There is an 'U'|'X'|'W'|'Z'|'-' in an arithmetic operand, the result will be 'X'(es).
#    Time: 0 ns  Iteration: 1  Instance: /top/sum/FPmul_under_test
# ** Warning: There is an 'U'|'X'|'W'|'Z'|'-' in an arithmetic operand, the result will be 'X'(es).
#    Time: 0 ns  Iteration: 1  Instance: /top/sum/FPmul_under_test
# ** Warning: There is an 'U'|'X'|'W'|'Z'|'-' in an arithmetic operand, the result will be 'X'(es).
#    Time: 0 ns  Iteration: 2  Instance: /top/sum/FPmul_under_test
# ** Warning: There is an 'U'|'X'|'W'|'Z'|'-' in an arithmetic operand, the result will be 'X'(es).
#    Time: 0 ns  Iteration: 2  Instance: /top/sum/FPmul_under_test
# ** Warning: There is an 'U'|'X'|'W'|'Z'|'-' in an arithmetic operand, the result will be 'X'(es).
#    Time: 0 ns  Iteration: 2  Instance: /top/sum/FPmul_under_test
# ** Warning: There is an 'U'|'X'|'W'|'Z'|'-' in an arithmetic operand, the result will be 'X'(es).
#    Time: 0 ns  Iteration: 2  Instance: /top/sum/FPmul_under_test
# ** Warning: There is an 'U'|'X'|'W'|'Z'|'-' in an arithmetic operand, the result will be 'X'(es).
#    Time: 0 ns  Iteration: 2  Instance: /top/sum/FPmul_under_test
# ** Warning: There is an 'U'|'X'|'W'|'Z'|'-' in an arithmetic operand, the result will be 'X'(es).
#    Time: 0 ns  Iteration: 2  Instance: /top/sum/FPmul_under_test
# ** Warning: There is an 'U'|'X'|'W'|'Z'|'-' in an arithmetic operand, the result will be 'X'(es).
#    Time: 0 ns  Iteration: 3  Instance: /top/sum/FPmul_under_test/I11
# ** Warning: There is an 'U'|'X'|'W'|'Z'|'-' in an arithmetic operand, the result will be 'X'(es).
#    Time: 0 ns  Iteration: 3  Instance: /top/sum/FPmul_under_test/I11
# fpmul: input A = 80385002625696054035873883133837312.000000, input B = -0.000000, output OUT = -3957172.000000
# fpmul: input A = 01111001011101111011010010010110, input B = 10010000011110011001110101000011, output OUT = 11001010011100011000011011010000
# refmod: input A = 80385002625696054035873883133837312.000000, input B = -0.000000, output OUT = -3957172.000000
# refmod: input A = 01111001011101111011010010010110, input B = 10010000011110011001110101000011, output OUT = 11001010011100011000011011010000
# UVM_INFO @ 45: uvm_test_top.env_h.comp [Comparator Match] 
# fpmul: input A = -0.000000, input B = 72749225343502105182208.000000, output OUT = -0.001996
# fpmul: input A = 10010101000001111101001111110010, input B = 01100101011101100111101111100101, output OUT = 10111011000000101100011101100111
# refmod: input A = -0.000000, input B = 72749225343502105182208.000000, output OUT = -0.001996
# refmod: input A = 10010101000001111101001111110010, input B = 01100101011101100111101111100101, output OUT = 10111011000000101100011101100111
# UVM_INFO @ 75: uvm_test_top.env_h.comp [Comparator Match] 
# fpmul: input A = 0.000000, input B = 7070855374378631168.000000, output OUT = 0.000000
# fpmul: input A = 00000000010101001111011111110000, input B = 01011110110001000100000101110011, output OUT = 00011111000000100100011100011010
# refmod: input A = 0.000000, input B = 7070855374378631168.000000, output OUT = 0.000000
# refmod: input A = 00000000010101001111011111110000, input B = 01011110110001000100000101110011, output OUT = 00011111100000100100011100011010
# UVM_INFO @ 105: reporter [MISCMP] Miscompare for exp.data: lhs = 'h1f82471a : rhs = 'h1f02471a
# UVM_INFO @ 105: reporter [MISCMP] 1 Miscompare(s) for object tr@825 vs. exp@617
# UVM_WARNING @ 105: uvm_test_top.env_h.comp [Comparator Mismatch] 
# fpmul: input A = -999081311145963350371018458104070144.000000, input B = 5681.283691, output OUT = -inf
# fpmul: input A = 11111011010000000110101010000011, input B = 01000101101100011000101001000101, output OUT = 11111111100000000000000000000000
# refmod: input A = -999081311145963350371018458104070144.000000, input B = 5681.283691, output OUT = -inf
# refmod: input A = 11111011010000000110101010000011, input B = 01000101101100011000101001000101, output OUT = 11111111100000000000000000000000
# UVM_INFO @ 135: uvm_test_top.env_h.comp [Comparator Match] 
# fpmul: input A = 2083.543457, input B = 0.930876, output OUT = 1939.521240
# fpmul: input A = 01000101000000100011100010110010, input B = 00111111011011100100110111101001, output OUT = 01000100111100100111000010101110
# refmod: input A = 2083.543457, input B = 0.930876, output OUT = 1939.521240
# refmod: input A = 01000101000000100011100010110010, input B = 00111111011011100100110111101001, output OUT = 01000100111100100111000010101110
# UVM_INFO @ 165: uvm_test_top.env_h.comp [Comparator Match] 
# fpmul: input A = -0.000000, input B = -149196750848.000000, output OUT = 0.000000
# fpmul: input A = 10000010111011000110100000000100, input B = 11010010000010101111001101000111, output OUT = 00010101100000000101000010111010
# refmod: input A = -0.000000, input B = -149196750848.000000, output OUT = 0.000000
# refmod: input A = 10000010111011000110100000000100, input B = 11010010000010101111001101000111, output OUT = 00010101100000000101000010111010
# UVM_INFO @ 195: uvm_test_top.env_h.comp [Comparator Match] 
# fpmul: input A = 75673487016098568115466509477740544.000000, input B = 0.000000, output OUT = 548715660266262696558592.000000
# fpmul: input A = 01111001011010010010111111011011, input B = 00101100111111110010000000001111, output OUT = 01100110111010000110001111011111
# refmod: input A = 75673487016098568115466509477740544.000000, input B = 0.000000, output OUT = 548715660266262696558592.000000
# refmod: input A = 01111001011010010010111111011011, input B = 00101100111111110010000000001111, output OUT = 01100110111010000110001111011111
# UVM_INFO @ 225: uvm_test_top.env_h.comp [Comparator Match] 
# fpmul: input A = -0.000000, input B = 171950153947180469059584.000000, output OUT = -49939734528.000000
# fpmul: input A = 10101010101000110111111110010110, input B = 01100110000100011010010110111111, output OUT = 11010001001110100000101000111110
# refmod: input A = -0.000000, input B = 171950153947180469059584.000000, output OUT = -49939734528.000000
# refmod: input A = 10101010101000110111111110010110, input B = 01100110000100011010010110111111, output OUT = 11010001001110100000101000111110
# UVM_INFO @ 255: uvm_test_top.env_h.comp [Comparator Match] 
# fpmul: input A = 62.680347, input B = -0.000301, output OUT = -0.018894
# fpmul: input A = 01000010011110101011100010101101, input B = 10111001100111100000100110010011, output OUT = 10111100100110101100011101011011
# refmod: input A = 62.680347, input B = -0.000301, output OUT = -0.018894
# refmod: input A = 01000010011110101011100010101101, input B = 10111001100111100000100110010011, output OUT = 10111100100110101100011101011011
# UVM_INFO @ 285: uvm_test_top.env_h.comp [Comparator Match] 
# fpmul: input A = 0.000000, input B = 8909786824878629177345201956999659520.000000, output OUT = 12109746190417920000.000000
# fpmul: input A = 00100001110010001001001101000111, input B = 01111100110101100111111011001101, output OUT = 01011111001010000000111001110110
# refmod: input A = 0.000000, input B = 8909786824878629177345201956999659520.000000, output OUT = 12109746190417920000.000000
# refmod: input A = 00100001110010001001001101000111, input B = 01111100110101100111111011001101, output OUT = 01011111001010000000111001110110
# UVM_INFO @ 315: uvm_test_top.env_h.comp [Comparator Match] 
# fpmul: input A = 0.000000, input B = -23403205346684769447406731264.000000, output OUT = -0.000000
# fpmul: input A = 00000010011010100000110011010011, input B = 11101110100101110011110101011011, output OUT = 10110001100010100100010110101001
# refmod: input A = 0.000000, input B = -23403205346684769447406731264.000000, output OUT = -0.000000
# refmod: input A = 00000010011010100000110011010011, input B = 11101110100101110011110101011011, output OUT = 10110001100010100100010110101001
# UVM_INFO @ 345: uvm_test_top.env_h.comp [Comparator Match] 
# fpmul: input A = -0.001041, input B = -0.000000, output OUT = 0.000000
# fpmul: input A = 10111010100010000110001000010101, input B = 10101101100001111000110111000010, output OUT = 00101000100100000110111001111101
# refmod: input A = -0.001041, input B = -0.000000, output OUT = 0.000000
# refmod: input A = 10111010100010000110001000010101, input B = 10101101100001111000110111000010, output OUT = 00101000100100000110111001111101
# UVM_INFO @ 375: uvm_test_top.env_h.comp [Comparator Match] 
# fpmul: input A = 0.000000, input B = -0.000000, output OUT = -0.000000
# fpmul: input A = 00101001100000101101101101101111, input B = 10011110101100110110001101110010, output OUT = 10001000101101110110010010000111
# refmod: input A = 0.000000, input B = -0.000000, output OUT = -0.000000
# refmod: input A = 00101001100000101101101101101111, input B = 10011110101100110110001101110010, output OUT = 10001000101101110110010010000111
# UVM_INFO @ 405: uvm_test_top.env_h.comp [Comparator Match] 
# fpmul: input A = -84021829632.000000, input B = 15172346626046492036317753980747776.000000, output OUT = -inf
# fpmul: input A = 11010001100111001000000010111011, input B = 01111000001110110000001101111100, output OUT = 11111111100000000000000000000000
# refmod: input A = -84021829632.000000, input B = 15172346626046492036317753980747776.000000, output OUT = -inf
# refmod: input A = 11010001100111001000000010111011, input B = 01111000001110110000001101111100, output OUT = 11111111100000000000000000000000
# UVM_INFO @ 435: uvm_test_top.env_h.comp [Comparator Match] 
# fpmul: input A = 643583130360024344756442405797888.000000, input B = 0.000000, output OUT = 147676067207627411554304.000000
# fpmul: input A = 01110101111111011101100101001010, input B = 00101111011111000100101100000110, output OUT = 01100101111110100010110001001001
# refmod: input A = 643583130360024344756442405797888.000000, input B = 0.000000, output OUT = 147676067207627411554304.000000
# refmod: input A = 01110101111111011101100101001010, input B = 00101111011111000100101100000110, output OUT = 01100101111110100010110001001001
# UVM_INFO @ 465: uvm_test_top.env_h.comp [Comparator Match] 
# fpmul: input A = 0.000002, input B = -0.337563, output OUT = -0.000001
# fpmul: input A = 00110101111001100011000111011010, input B = 10111110101011001101010100001000, output OUT = 10110101000110110110100100001101
# refmod: input A = 0.000002, input B = -0.337563, output OUT = -0.000001
# refmod: input A = 00110101111001100011000111011010, input B = 10111110101011001101010100001000, output OUT = 10110101000110110110100100001101
# UVM_INFO @ 495: uvm_test_top.env_h.comp [Comparator Match] 
# fpmul: input A = -5074665625872236544.000000, input B = 0.000000, output OUT = -13.148355
# fpmul: input A = 11011110100011001101100110101011, input B = 00100010001111110010111000111001, output OUT = 11000001010100100101111110101010
# refmod: input A = -5074665625872236544.000000, input B = 0.000000, output OUT = -13.148355
# refmod: input A = 11011110100011001101100110101011, input B = 00100010001111110010111000111001, output OUT = 11000001010100100101111110101010
# UVM_INFO @ 525: uvm_test_top.env_h.comp [Comparator Match] 
# fpmul: input A = 0.000000, input B = -0.002134, output OUT = -0.000000
# fpmul: input A = 00001111011111001010010100110110, input B = 10111011000010111101001110001100, output OUT = 10001011000010011111111001111011
# refmod: input A = 0.000000, input B = -0.002134, output OUT = -0.000000
# refmod: input A = 00001111011111001010010100110110, input B = 10111011000010111101001110001100, output OUT = 10001011000010011111111001111011
# UVM_INFO @ 555: uvm_test_top.env_h.comp [Comparator Match] 
# fpmul: input A = -0.000032, input B = 0.000000, output OUT = -0.000000
# fpmul: input A = 10111000000001000100110011100000, input B = 00101001010100101010111001010111, output OUT = 10100001110110011100001001010010
# refmod: input A = -0.000032, input B = 0.000000, output OUT = -0.000000
# refmod: input A = 10111000000001000100110011100000, input B = 00101001010100101010111001010111, output OUT = 10100001110110011100001001010010
# UVM_INFO @ 585: uvm_test_top.env_h.comp [Comparator Match] 
# fpmul: input A = -4978253002437257701514544328736768.000000, input B = 49.488869, output OUT = -246368112031803298407812650210689024.000000
# fpmul: input A = 11110111011101010111001001100011, input B = 01000010010001011111010010011010, output OUT = 11111010001111011100101110001011
# refmod: input A = -4978253002437257701514544328736768.000000, input B = 49.488869, output OUT = -246368112031803298407812650210689024.000000
# refmod: input A = 11110111011101010111001001100011, input B = 01000010010001011111010010011010, output OUT = 11111010001111011100101110001011
# UVM_INFO @ 615: uvm_test_top.env_h.comp [Comparator Match] 
# fpmul: input A = -0.000000, input B = -112666462912512.000000, output OUT = 0.000005
# fpmul: input A = 10011111010000101010010011010000, input B = 11010110110011001111000001101001, output OUT = 00110110100110111101001000100000
# refmod: input A = -0.000000, input B = -112666462912512.000000, output OUT = 0.000005
# refmod: input A = 10011111010000101010010011010000, input B = 11010110110011001111000001101001, output OUT = 00110110100110111101001000100000
# UVM_INFO @ 645: uvm_test_top.env_h.comp [Comparator Match] 
# fpmul: input A = -0.000000, input B = -7145835070100955201536.000000, output OUT = 0.000001
# fpmul: input A = 10010001001001000110110001101000, input B = 11100011110000011011000000110001, output OUT = 00110101011110001100110111001001
# refmod: input A = -0.000000, input B = -7145835070100955201536.000000, output OUT = 0.000001
# refmod: input A = 10010001001001000110110001101000, input B = 11100011110000011011000000110001, output OUT = 00110101011110001100110111001001
# UVM_INFO @ 675: uvm_test_top.env_h.comp [Comparator Match] 
# fpmul: input A = 0.000000, input B = -1133120468421705728.000000, output OUT = -0.000000
# fpmul: input A = 00001111101001000010000010110100, input B = 11011101011110111001101001110001, output OUT = 10101101101000010100111100010101
# refmod: input A = 0.000000, input B = -1133120468421705728.000000, output OUT = -0.000000
# refmod: input A = 00001111101001000010000010110100, input B = 11011101011110111001101001110001, output OUT = 10101101101000010100111100010101
# UVM_INFO @ 705: uvm_test_top.env_h.comp [Comparator Match] 
# fpmul: input A = -20965122646212608.000000, input B = 13882208256.000000, output OUT = -291042194904123217243275264.000000
# fpmul: input A = 11011010100101001111011101010110, input B = 01010000010011101101110001101100, output OUT = 11101011011100001011111010010101
# refmod: input A = -20965122646212608.000000, input B = 13882208256.000000, output OUT = -291042194904123217243275264.000000
# refmod: input A = 11011010100101001111011101010110, input B = 01010000010011101101110001101100, output OUT = 11101011011100001011111010010101
# UVM_INFO @ 735: uvm_test_top.env_h.comp [Comparator Match] 
# fpmul: input A = -0.000000, input B = 254.581406, output OUT = -0.000000
# fpmul: input A = 10100001110101110001100111111000, input B = 01000011011111101001010011010111, output OUT = 10100101110101011110100011010100
# refmod: input A = -0.000000, input B = 254.581406, output OUT = -0.000000
# refmod: input A = 10100001110101110001100111111000, input B = 01000011011111101001010011010111, output OUT = 10100101110101011110100011010100
# UVM_INFO @ 765: uvm_test_top.env_h.comp [Comparator Match] 
# fpmul: input A = 766219.812500, input B = 0.000000, output OUT = 0.000000
# fpmul: input A = 01001001001110110001000010111101, input B = 00100011010011011011011000001001, output OUT = 00101101000101100101000101101100
# refmod: input A = 766219.812500, input B = 0.000000, output OUT = 0.000000
# refmod: input A = 01001001001110110001000010111101, input B = 00100011010011011011011000001001, output OUT = 00101101000101100101000101101100
# UVM_INFO @ 795: uvm_test_top.env_h.comp [Comparator Match] 
# fpmul: input A = 374119414150201344.000000, input B = 82.993156, output OUT = 31049350749324574720.000000
# fpmul: input A = 01011100101001100010010001110100, input B = 01000010101001011111110001111111, output OUT = 01011111110101110111001010111010
# refmod: input A = 374119414150201344.000000, input B = 82.993156, output OUT = 31049350749324574720.000000
# refmod: input A = 01011100101001100010010001110100, input B = 01000010101001011111110001111111, output OUT = 01011111110101110111001010111010
# UVM_INFO @ 825: uvm_test_top.env_h.comp [Comparator Match] 
# fpmul: input A = -545784.875000, input B = -5266215665470211716173082394624.000000, output OUT = 2874220898758778329892265728092930048.000000
# fpmul: input A = 11001001000001010011111110001110, input B = 11110010100001001111000000011111, output OUT = 01111100000010100110001110000010
# refmod: input A = -545784.875000, input B = -5266215665470211716173082394624.000000, output OUT = 2874220898758778329892265728092930048.000000
# refmod: input A = 11001001000001010011111110001110, input B = 11110010100001001111000000011111, output OUT = 01111100000010100110001110000010
# UVM_INFO @ 855: uvm_test_top.env_h.comp [Comparator Match] 
# fpmul: input A = 7136419677173674398241425195008.000000, input B = 0.000000, output OUT = 26174683136.000000
# fpmul: input A = 01110010101101000010011000001000, input B = 00011101100010101001000001101001, output OUT = 01010000110000110000010000111111
# refmod: input A = 7136419677173674398241425195008.000000, input B = 0.000000, output OUT = 26174683136.000000
# refmod: input A = 01110010101101000010011000001000, input B = 00011101100010101001000001101001, output OUT = 01010000110000110000010000111111
# UVM_INFO @ 885: uvm_test_top.env_h.comp [Comparator Match] 
# fpmul: input A = -15610259160745115648.000000, input B = 0.000000, output OUT = -25.783573
# fpmul: input A = 11011111010110001010001011001000, input B = 00100001111100111011111110111001, output OUT = 11000001110011100100010011000010
# refmod: input A = -15610259160745115648.000000, input B = 0.000000, output OUT = -25.783573
# refmod: input A = 11011111010110001010001011001000, input B = 00100001111100111011111110111001, output OUT = 11000001110011100100010011000010
# UVM_INFO @ 915: uvm_test_top.env_h.comp [Comparator Match] 
# fpmul: input A = -1814875715762452496567106780237135872.000000, input B = 2156014442060565184512.000000, output OUT = -inf
# fpmul: input A = 11111011101011101100010000100100, input B = 01100010111010011100000101101100, output OUT = 11111111100000000000000000000000
# refmod: input A = -1814875715762452496567106780237135872.000000, input B = 2156014442060565184512.000000, output OUT = -inf
# refmod: input A = 11111011101011101100010000100100, input B = 01100010111010011100000101101100, output OUT = 11111111100000000000000000000000
# UVM_INFO @ 945: uvm_test_top.env_h.comp [Comparator Match] 
# fpmul: input A = 11007312896.000000, input B = 0.000000, output OUT = 0.000000
# fpmul: input A = 01010000001001000000010110010001, input B = 00000101011010011011010101110000, output OUT = 00010110000101011011110101010001
# refmod: input A = 11007312896.000000, input B = 0.000000, output OUT = 0.000000
# refmod: input A = 01010000001001000000010110010001, input B = 00000101011010011011010101110000, output OUT = 00010110000101011011110101010001
# UVM_INFO @ 975: uvm_test_top.env_h.comp [Comparator Match] 
# fpmul: input A = 0.006530, input B = -0.000000, output OUT = -0.000000
# fpmul: input A = 00111011110101011111101101000110, input B = 10010000011100101011100101010100, output OUT = 10001100110010101110001001110001
# refmod: input A = 0.006530, input B = -0.000000, output OUT = -0.000000
# refmod: input A = 00111011110101011111101101000110, input B = 10010000011100101011100101010100, output OUT = 10001100110010101110001001110001
# UVM_INFO @ 1005: uvm_test_top.env_h.comp [Comparator Match] 
# fpmul: input A = -0.000000, input B = -0.000000, output OUT = 0.000000
# fpmul: input A = 10110000110100100001100001111100, input B = 10101110011000001111010011101011, output OUT = 00011111101110001001111001101101
# refmod: input A = -0.000000, input B = -0.000000, output OUT = 0.000000
# refmod: input A = 10110000110100100001100001111100, input B = 10101110011000001111010011101011, output OUT = 00011111101110001001111001101101
# UVM_INFO @ 1035: uvm_test_top.env_h.comp [Comparator Match] 
# fpmul: input A = 0.000000, input B = 7932760031232.000000, output OUT = 0.000000
# fpmul: input A = 00001100110010110100001011001010, input B = 01010100111001101101111110101011, output OUT = 00100010001101110100111110011000
# refmod: input A = 0.000000, input B = 7932760031232.000000, output OUT = 0.000000
# refmod: input A = 00001100110010110100001011001010, input B = 01010100111001101101111110101011, output OUT = 00100010001101110100111110011000
# UVM_INFO @ 1065: uvm_test_top.env_h.comp [Comparator Match] 
# fpmul: input A = 1096997617403226150938869760.000000, input B = 6210721220529585241458737152.000000, output OUT = inf
# fpmul: input A = 01101100011000101101101010010010, input B = 01101101101000001000101100011011, output OUT = 01111111100000000000000000000000
# refmod: input A = 1096997617403226150938869760.000000, input B = 6210721220529585241458737152.000000, output OUT = inf
# refmod: input A = 01101100011000101101101010010010, input B = 01101101101000001000101100011011, output OUT = 01111111100000000000000000000000
# UVM_INFO @ 1095: uvm_test_top.env_h.comp [Comparator Match] 
# fpmul: input A = -3960456452505600.000000, input B = 21311142964260124722462720.000000, output OUT = -inf
# fpmul: input A = 11011001011000010010000000111010, input B = 01101001100011010000011001111011, output OUT = 11111111100000000000000000000000
# refmod: input A = -3960456452505600.000000, input B = 21311142964260124722462720.000000, output OUT = -inf
# refmod: input A = 11011001011000010010000000111010, input B = 01101001100011010000011001111011, output OUT = 11111111100000000000000000000000
# UVM_INFO @ 1125: uvm_test_top.env_h.comp [Comparator Match] 
# fpmul: input A = -1.517108, input B = 0.000000, output OUT = -0.000000
# fpmul: input A = 10111111110000100011000010010110, input B = 00100000110111001110100100100000, output OUT = 10100001001001111001001010010111
# refmod: input A = -1.517108, input B = 0.000000, output OUT = -0.000000
# refmod: input A = 10111111110000100011000010010110, input B = 00100000110111001110100100100000, output OUT = 10100001001001111001001010010111
# UVM_INFO @ 1155: uvm_test_top.env_h.comp [Comparator Match] 
# fpmul: input A = -0.000000, input B = -0.000000, output OUT = 0.000000
# fpmul: input A = 10110010010000010111010111101001, input B = 10010100011011011100111100001000, output OUT = 00000111001100111011011010011101
# refmod: input A = -0.000000, input B = -0.000000, output OUT = 0.000000
# refmod: input A = 10110010010000010111010111101001, input B = 10010100011011011100111100001000, output OUT = 00000111001100111011011010011101
# UVM_INFO @ 1185: uvm_test_top.env_h.comp [Comparator Match] 
# fpmul: input A = 8253414896609389445120.000000, input B = -0.000000, output OUT = -39330.281250
# fpmul: input A = 01100011110111111011010110010010, input B = 10100010101011111100111101001111, output OUT = 11000111000110011010001001001000
# refmod: input A = 8253414896609389445120.000000, input B = -0.000000, output OUT = -39330.281250
# refmod: input A = 01100011110111111011010110010010, input B = 10100010101011111100111101001111, output OUT = 11000111000110011010001001001000
# UVM_INFO @ 1215: uvm_test_top.env_h.comp [Comparator Match] 
# fpmul: input A = 16520366.000000, input B = -24484500507682829507430886332694528.000000, output OUT = -inf
# fpmul: input A = 01001011011111000001010010101110, input B = 11111000100101101110010110111011, output OUT = 11111111100000000000000000000000
# refmod: input A = 16520366.000000, input B = -24484500507682829507430886332694528.000000, output OUT = -inf
# refmod: input A = 01001011011111000001010010101110, input B = 11111000100101101110010110111011, output OUT = 11111111100000000000000000000000
# UVM_INFO @ 1245: uvm_test_top.env_h.comp [Comparator Match] 
# fpmul: input A = 0.000008, input B = 0.000000, output OUT = 0.000000
# fpmul: input A = 00110110111111110010101100000000, input B = 00001110111110110010101111010010, output OUT = 00000110011110100101101011010111
# refmod: input A = 0.000008, input B = 0.000000, output OUT = 0.000000
# refmod: input A = 00110110111111110010101100000000, input B = 00001110111110110010101111010010, output OUT = 00000110011110100101101011010111
# UVM_INFO @ 1275: uvm_test_top.env_h.comp [Comparator Match] 
# fpmul: input A = -289280659972292471030808576.000000, input B = 0.000000, output OUT = -96983908352.000000
# fpmul: input A = 11101011011011110100100110010000, input B = 00100101110000010100001101111010, output OUT = 11010001101101001010010110001000
# refmod: input A = -289280659972292471030808576.000000, input B = 0.000000, output OUT = -96983908352.000000
# refmod: input A = 11101011011011110100100110010000, input B = 00100101110000010100001101111010, output OUT = 11010001101101001010010110001000
# UVM_INFO @ 1305: uvm_test_top.env_h.comp [Comparator Match] 
# fpmul: input A = 0.000000, input B = -0.000000, output OUT = -0.000000
# fpmul: input A = 00101011100111010100101100000110, input B = 10010100100111101000111110001111, output OUT = 10000000110000101101100100000101
# refmod: input A = 0.000000, input B = -0.000000, output OUT = -0.000000
# refmod: input A = 00101011100111010100101100000110, input B = 10010100100111101000111110001111, output OUT = 10000000110000101101100100000101
# UVM_INFO @ 1335: uvm_test_top.env_h.comp [Comparator Match] 
# fpmul: input A = 0.000000, input B = 4.270851, output OUT = 0.000000
# fpmul: input A = 00110011000111111000101011010000, input B = 01000000100010001010101011001111, output OUT = 00110100001010100101100001100011
# refmod: input A = 0.000000, input B = 4.270851, output OUT = 0.000000
# refmod: input A = 00110011000111111000101011010000, input B = 01000000100010001010101011001111, output OUT = 00110100001010100101100001100011
# UVM_INFO @ 1365: uvm_test_top.env_h.comp [Comparator Match] 
# fpmul: input A = 0.000000, input B = 8008676580987103952600377065472.000000, output OUT = 2524484066082816.000000
# fpmul: input A = 00100101101101011011011000001111, input B = 01110010110010100010101011011100, output OUT = 01011001000011111000000000010100
# refmod: input A = 0.000000, input B = 8008676580987103952600377065472.000000, output OUT = 2524484066082816.000000
# refmod: input A = 00100101101101011011011000001111, input B = 01110010110010100010101011011100, output OUT = 01011001000011111000000000010100
# UVM_INFO @ 1395: uvm_test_top.env_h.comp [Comparator Match] 
# fpmul: input A = 0.000015, input B = 1902933.125000, output OUT = 29.343700
# fpmul: input A = 00110111100000010101101010111011, input B = 01001001111010000100101010101001, output OUT = 01000001111010101011111111100110
# refmod: input A = 0.000015, input B = 1902933.125000, output OUT = 29.343700
# refmod: input A = 00110111100000010101101010111011, input B = 01001001111010000100101010101001, output OUT = 01000001111010101011111111100110
# UVM_INFO @ 1425: uvm_test_top.env_h.comp [Comparator Match] 
# fpmul: input A = -0.000000, input B = 3985689610872562909184.000000, output OUT = -399568535552.000000
# fpmul: input A = 10101110110111000111010000101110, input B = 01100011010110000001000010001110, output OUT = 11010010101110100001000001001000
# refmod: input A = -0.000000, input B = 3985689610872562909184.000000, output OUT = -399568535552.000000
# refmod: input A = 10101110110111000111010000101110, input B = 01100011010110000001000010001110, output OUT = 11010010101110100001000001001000
# UVM_INFO @ 1455: uvm_test_top.env_h.comp [Comparator Match] 
# fpmul: input A = -226949.828125, input B = -3598354219008.000000, output OUT = 816645837575684096.000000
# fpmul: input A = 11001000010111011010000101110101, input B = 11010100010100010111001110101000, output OUT = 01011101001101010101010011110001
